------------------------------------------------------------------------
r1231433 | kossebau | 2011-05-12 08:18:45 +1200 (Thu, 12 May 2011) | 1 line

changed: update patchlevel version to .4
------------------------------------------------------------------------
r1231622 | aacid | 2011-05-13 06:53:07 +1200 (Fri, 13 May 2011) | 4 lines

bport r1231430 | aacid | 2011-05-11 20:48:57 +0100 (Wed, 11 May 2011) | 2 lines

Properly extract comment and extracomment

------------------------------------------------------------------------
r1234758 | ilic | 2011-06-03 02:51:41 +1200 (Fri, 03 Jun 2011) | 1 line

Do not forget to unescape XML on embedded code. (bport: 1234755)
------------------------------------------------------------------------
