------------------------------------------------------------------------
r1229009 | scripty | 2011-04-25 01:34:33 +1200 (Mon, 25 Apr 2011) | 1 line

SVN_SILENT made messages (.desktop file)
------------------------------------------------------------------------
r1229314 | scripty | 2011-04-27 03:31:22 +1200 (Wed, 27 Apr 2011) | 1 line

SVN_SILENT made messages (.desktop file)
------------------------------------------------------------------------
