------------------------------------------------------------------------
r1170660 | lueck | 2010-09-02 07:27:55 +1200 (Thu, 02 Sep 2010) | 1 line

doc backport for 4.5.2
------------------------------------------------------------------------
r1172871 | scripty | 2010-09-08 15:21:49 +1200 (Wed, 08 Sep 2010) | 1 line

SVN_SILENT made messages (.desktop file)
------------------------------------------------------------------------
r1179296 | scripty | 2010-09-25 14:48:57 +1200 (Sat, 25 Sep 2010) | 1 line

SVN_SILENT made messages (.desktop file)
------------------------------------------------------------------------
r1180120 | scripty | 2010-09-27 15:54:53 +1300 (Mon, 27 Sep 2010) | 1 line

SVN_SILENT made messages (.desktop file)
------------------------------------------------------------------------
