------------------------------------------------------------------------
r1121843 | arnorehn | 2010-05-03 00:35:57 +1200 (Mon, 03 May 2010) | 2 lines

backport enum fix

------------------------------------------------------------------------
r1124282 | arnorehn | 2010-05-09 03:33:23 +1200 (Sun, 09 May 2010) | 2 lines

backport arm fix

------------------------------------------------------------------------
r1125428 | arnorehn | 2010-05-11 22:54:10 +1200 (Tue, 11 May 2010) | 2 lines

backport the stack-values fix from trunk

------------------------------------------------------------------------
