<?xml version="1.0" encoding="UTF-8" standalone="no"?>
<svg
   inkscape:version="1.2.2 (b0a8486541, 2022-12-01)"
   sodipodi:docname="peertube-brand.svg"
   id="svg895"
   version="1.1"
   viewBox="0 0 76 100"
   height="100"
   width="76"
   xmlns:inkscape="http://www.inkscape.org/namespaces/inkscape"
   xmlns:sodipodi="http://sodipodi.sourceforge.net/DTD/sodipodi-0.dtd"
   xmlns="http://www.w3.org/2000/svg"
   xmlns:svg="http://www.w3.org/2000/svg"
   xmlns:rdf="http://www.w3.org/1999/02/22-rdf-syntax-ns#"
   xmlns:cc="http://creativecommons.org/ns#"
   xmlns:dc="http://purl.org/dc/elements/1.1/">
  <metadata
     id="metadata901">
    <rdf:RDF>
      <cc:Work
         rdf:about="">
        <dc:format>image/svg+xml</dc:format>
        <dc:type
           rdf:resource="http://purl.org/dc/dcmitype/StillImage" />
        <dc:title>Peertube_V3_logo Copy</dc:title>
      </cc:Work>
    </rdf:RDF>
  </metadata>
  <defs
     id="defs899" />
  <sodipodi:namedview
     inkscape:current-layer="Group"
     inkscape:window-maximized="1"
     inkscape:window-y="0"
     inkscape:window-x="0"
     inkscape:cy="50.507727"
     inkscape:cx="260"
     inkscape:zoom="2.6134615"
     showgrid="false"
     id="namedview897"
     inkscape:window-height="1007"
     inkscape:window-width="1920"
     inkscape:pageshadow="2"
     inkscape:pageopacity="0"
     guidetolerance="10"
     gridtolerance="10"
     objecttolerance="10"
     borderopacity="1"
     bordercolor="#666666"
     pagecolor="#ffffff"
     inkscape:showpageshadow="2"
     inkscape:pagecheckerboard="0"
     inkscape:deskcolor="#d1d1d1" />
  <title
     id="title886">PeerTube logo</title>
  <g
     fill-rule="evenodd"
     fill="none"
     stroke-width="1"
     stroke="none"
     id="Peertube_V3_logo-Copy">
    <g
       id="Group">
      <polygon
         points="19,6 44,44 -6,44 "
         transform="rotate(90,19,25)"
         fill="#000000"
         id="Triangle" />
      <polygon
         points="19,56 44,94 -6,94 "
         transform="rotate(90,19,75)"
         fill="#737373"
         id="Triangle-Copy" />
      <polygon
         points="57,31 82,69 32,69 "
         transform="rotate(90,57,50)"
         fill="#f1680d"
         id="Triangle-Copy-2" />
    </g>
  </g>
</svg>
