------------------------------------------------------------------------
r1236692 | lueck | 2011-06-15 00:42:04 +1200 (Wed, 15 Jun 2011) | 2 lines

load translation catalog kfilereplace when using kfilereplacepart in Konqueror
BUG:273470
------------------------------------------------------------------------
